<?xml version="1.0" encoding="UTF-8" standalone="no"?>
<svg
   xmlns:dc="http://purl.org/dc/elements/1.1/"
   xmlns:cc="http://creativecommons.org/ns#"
   xmlns:rdf="http://www.w3.org/1999/02/22-rdf-syntax-ns#"
   xmlns:svg="http://www.w3.org/2000/svg"
   xmlns="http://www.w3.org/2000/svg"
   xmlns:sodipodi="http://sodipodi.sourceforge.net/DTD/sodipodi-0.dtd"
   xmlns:inkscape="http://www.inkscape.org/namespaces/inkscape"
   width="800"
   height="800"
   viewBox="0 0 211.66666 211.66667"
   version="1.1"
   id="svg8"
   inkscape:version="1.0.2 (e86c870879, 2021-01-15)"
   sodipodi:docname="cancelor.svg">
  <defs
     id="defs2" />
  <sodipodi:namedview
     id="base"
     pagecolor="#ffffff"
     bordercolor="#666666"
     borderopacity="1.0"
     inkscape:pageopacity="0.0"
     inkscape:pageshadow="2"
     inkscape:zoom="0.7628428"
     inkscape:cx="408.52768"
     inkscape:cy="354.04588"
     inkscape:document-units="mm"
     inkscape:current-layer="layer1"
     inkscape:document-rotation="0"
     showgrid="false"
     inkscape:snap-global="true"
     inkscape:window-width="1440"
     inkscape:window-height="876"
     inkscape:window-x="1366"
     inkscape:window-y="0"
     inkscape:window-maximized="1"
     inkscape:showpageshadow="false"
     units="px"
     inkscape:snap-bbox="true"
     inkscape:snap-page="true"
     inkscape:object-paths="true" />
  <metadata
     id="metadata5">
    <rdf:RDF>
      <cc:Work
         rdf:about="">
        <dc:format>image/svg+xml</dc:format>
        <dc:type
           rdf:resource="http://purl.org/dc/dcmitype/StillImage" />
        <dc:title />
      </cc:Work>
    </rdf:RDF>
  </metadata>
  <g
     inkscape:label="Layer 1"
     inkscape:groupmode="layer"
     id="layer1">
    <path
       sodipodi:type="star"
       style="fill:#999999;stroke:#666666;stroke-width:1.16177;stroke-linecap:square;stroke-linejoin:bevel;stroke-miterlimit:4;stroke-dasharray:none"
       id="path855"
       sodipodi:sides="6"
       sodipodi:cx="105.83333"
       sodipodi:cy="110.49269"
       sodipodi:r1="99.437614"
       sodipodi:r2="86.115501"
       sodipodi:arg1="1.5707963"
       sodipodi:arg2="2.0943951"
       inkscape:flatsided="true"
       inkscape:rounded="0"
       inkscape:randomized="0"
       inkscape:transform-center-x="2.7170203e-06"
       d="m 105.83333,209.93031 -86.115501,-49.71881 -2e-6,-99.437614 86.115503,-49.718809 86.1155,49.718805 0,99.437618 z" />
    <path
       sodipodi:type="star"
       style="fill:#782121;stroke:#333333;stroke-width:1.16177;stroke-linecap:square;stroke-linejoin:bevel;stroke-miterlimit:4;stroke-dasharray:none"
       id="path853"
       sodipodi:sides="6"
       sodipodi:cx="105.83333"
       sodipodi:cy="101.17397"
       sodipodi:r1="99.437614"
       sodipodi:r2="86.115501"
       sodipodi:arg1="1.5707963"
       sodipodi:arg2="2.0943951"
       inkscape:flatsided="true"
       inkscape:rounded="0"
       inkscape:randomized="0"
       inkscape:transform-center-x="2.7170203e-06"
       d="m 105.83333,200.61159 -86.115501,-49.71881 -2e-6,-99.437612 86.115503,-49.7188094 86.1155,49.7188054 0,99.437616 z" />
    <path
       sodipodi:type="star"
       style="fill:#666666;stroke:#333333;stroke-width:0.851241;stroke-linecap:square;stroke-linejoin:bevel;stroke-miterlimit:4;stroke-dasharray:none"
       id="path852"
       sodipodi:sides="6"
       sodipodi:cx="105.83333"
       sodipodi:cy="101.17397"
       sodipodi:r1="72.858948"
       sodipodi:r2="63.097702"
       sodipodi:arg1="1.5707963"
       sodipodi:arg2="2.0943951"
       inkscape:flatsided="true"
       inkscape:rounded="0"
       inkscape:randomized="0"
       inkscape:transform-center-x="1.9907883e-06"
       d="m 105.83333,174.03292 -63.0977,-36.42947 -2e-6,-72.858949 63.097702,-36.429476 63.0977,36.429473 0,72.858952 z" />
    <path
       style="fill:#2ca05a;stroke:#16502d;stroke-width:5;stroke-linecap:butt;stroke-linejoin:miter;stroke-miterlimit:4;stroke-dasharray:none;stroke-opacity:1"
       d="M 40.160233,115.60909 V 97.340633 h 37.08108 V 48.435722 c 19.061346,0 38.122687,0 57.184037,0 v 48.904911 h 37.08108 v 18.268457 l -65.6731,37.91638 z"
       id="path850"
       sodipodi:nodetypes="cccccccccc" />
    <g
       id="g875"
       transform="translate(-5.9440677,-3.4318128)">
      <path
         style="fill:#782121;stroke:none;stroke-width:0.264583px;stroke-linecap:butt;stroke-linejoin:miter;stroke-opacity:1"
         d="M 135.94544,33.619243 160.88406,48.017567 87.323897,175.42751 62.385274,161.02919 Z"
         id="path854"
         sodipodi:nodetypes="ccccc" />
      <path
         id="path856"
         style="fill:#666666;stroke:#333333;stroke-width:0.851241;stroke-linecap:square;stroke-linejoin:bevel;stroke-miterlimit:4;stroke-dasharray:none"
         inkscape:transform-center-x="1.9907883e-06"
         d="M 130.71421,42.680009 67.616504,151.96843"
         sodipodi:nodetypes="cc" />
      <path
         id="path870"
         style="fill:#666666;stroke:#333333;stroke-width:0.851241;stroke-linecap:square;stroke-linejoin:bevel;stroke-miterlimit:4;stroke-dasharray:none"
         inkscape:transform-center-x="1.9907883e-06"
         d="M 155.9383,57.243146 92.840599,166.53156"
         sodipodi:nodetypes="cc" />
    </g>
  </g>
</svg>
